{
    "count":224,
    "next":"https://api.rawg.io/api/games?dates=2021-06-29%2C2022-06-29&key=61b1a8a3b8b14d89bc683cb1b7e0fdfb&ordering=-released&page=2&pageSize=2&platforms=187",
    "previous":null,
    "results":[
       {
          "slug":"outriders-worldslayer",
          "name":"Outriders Worldslayer",
          "playtime":0,
          "platforms":[
             {
                "platform":{
                   "id":4,
                   "name":"PC",
                   "slug":"pc"
                }
             },
             {
                "platform":{
                   "id":187,
                   "name":"PlayStation 5",
                   "slug":"playstation5"
                }
             },
             {
                "platform":{
                   "id":1,
                   "name":"Xbox One",
                   "slug":"xbox-one"
                }
             },
             {
                "platform":{
                   "id":18,
                   "name":"PlayStation 4",
                   "slug":"playstation4"
                }
             },
             {
                "platform":{
                   "id":186,
                   "name":"Xbox Series S/X",
                   "slug":"xbox-series-x"
                }
             }
          ],
          "stores":[
             {
                "store":{
                   "id":1,
                   "name":"Steam",
                   "slug":"steam"
                }
             },
             {
                "store":{
                   "id":3,
                   "name":"PlayStation Store",
                   "slug":"playstation-store"
                }
             }
          ],
          "released":"2022-06-28",
          "tba":false,
          "background_image":"https://media.rawg.io/media/games/b01/b01b38e30ce7e55f15d22d9cac9510f7.jpg",
          "rating":0.0,
          "rating_top":0,
          "ratings":[
             
          ],
          "ratings_count":0,
          "reviews_text_count":0,
          "added":5,
          "added_by_status":{
             "owned":2,
             "toplay":3
          },
          "metacritic":77,
          "suggestions_count":218,
          "updated":"2022-06-10T07:46:34",
          "id":799244,
          "score":null,
          "clip":null,
          "tags":[
             
          ],
          "esrb_rating":{
             "id":4,
             "name":"Mature",
             "slug":"mature",
             "name_en":"Mature",
             "name_ru":"С 17 лет"
          },
          "user_game":null,
          "reviews_count":0,
          "community_rating":0,
          "saturated_color":"0f0f0f",
          "dominant_color":"0f0f0f",
          "short_screenshots":[
             {
                "id":-1,
                "image":"https://media.rawg.io/media/games/b01/b01b38e30ce7e55f15d22d9cac9510f7.jpg"
             },
             {
                "id":3412461,
                "image":"https://media.rawg.io/media/screenshots/e5f/e5f8b1bc40a5bf471bf4854010d8f835.jpg"
             },
             {
                "id":3412462,
                "image":"https://media.rawg.io/media/screenshots/c2a/c2ac623022e8b7254ec1112b053782ac.jpg"
             },
             {
                "id":3414293,
                "image":"https://media.rawg.io/media/screenshots/6ce/6ced3952ff7001efb29450a642938c94.jpg"
             },
             {
                "id":3414300,
                "image":"https://media.rawg.io/media/screenshots/a3b/a3bd1e63182c341b472754cfc3626738.jpg"
             },
             {
                "id":3414302,
                "image":"https://media.rawg.io/media/screenshots/acf/acf7881c8ed664b92552773b5db60c6c.jpg"
             }
          ],
          "parent_platforms":[
             {
                "platform":{
                   "id":1,
                   "name":"PC",
                   "slug":"pc"
                }
             },
             {
                "platform":{
                   "id":2,
                   "name":"PlayStation",
                   "slug":"playstation"
                }
             },
             {
                "platform":{
                   "id":3,
                   "name":"Xbox",
                   "slug":"xbox"
                }
             }
          ],
          "genres":[
             {
                "id":2,
                "name":"Shooter",
                "slug":"shooter"
             },
             {
                "id":4,
                "name":"Action",
                "slug":"action"
             },
             {
                "id":5,
                "name":"RPG",
                "slug":"role-playing-games-rpg"
             }
          ]
       },
       {
          "slug":"sonic-origins",
          "name":"Sonic Origins",
          "playtime":0,
          "platforms":[
             {
                "platform":{
                   "id":4,
                   "name":"PC",
                   "slug":"pc"
                }
             },
             {
                "platform":{
                   "id":187,
                   "name":"PlayStation 5",
                   "slug":"playstation5"
                }
             },
             {
                "platform":{
                   "id":1,
                   "name":"Xbox One",
                   "slug":"xbox-one"
                }
             },
             {
                "platform":{
                   "id":18,
                   "name":"PlayStation 4",
                   "slug":"playstation4"
                }
             },
             {
                "platform":{
                   "id":186,
                   "name":"Xbox Series S/X",
                   "slug":"xbox-series-x"
                }
             },
             {
                "platform":{
                   "id":7,
                   "name":"Nintendo Switch",
                   "slug":"nintendo-switch"
                }
             }
          ],
          "stores":[
             {
                "store":{
                   "id":1,
                   "name":"Steam",
                   "slug":"steam"
                }
             },
             {
                "store":{
                   "id":3,
                   "name":"PlayStation Store",
                   "slug":"playstation-store"
                }
             },
             {
                "store":{
                   "id":11,
                   "name":"Epic Games",
                   "slug":"epic-games"
                }
             }
          ],
          "released":"2022-06-23",
          "tba":false,
          "background_image":"https://media.rawg.io/media/games/8d0/8d0d4ee64321119d37ef8d140184a639.jpg",
          "rating":0.0,
          "rating_top":0,
          "ratings":[
             
          ],
          "ratings_count":0,
          "reviews_text_count":0,
          "added":15,
          "added_by_status":{
             "yet":1,
             "owned":7,
             "beaten":1,
             "toplay":6
          },
          "metacritic":80,
          "suggestions_count":253,
          "updated":"2022-06-24T06:49:18",
          "id":772537,
          "score":null,
          "clip":null,
          "tags":[
             {
                "id":31,
                "name":"Singleplayer",
                "slug":"singleplayer",
                "language":"eng",
                "games_count":168888,
                "image_background":"https://media.rawg.io/media/games/310/3106b0e012271c5ffb16497b070be739.jpg"
             },
             {
                "id":42396,
                "name":"Для одного игрока",
                "slug":"dlia-odnogo-igroka",
                "language":"rus",
                "games_count":25568,
                "image_background":"https://media.rawg.io/media/games/b7b/b7b8381707152afc7d91f5d95de70e39.jpg"
             },
             {
                "id":42417,
                "name":"Экшен",
                "slug":"ekshen",
                "language":"rus",
                "games_count":27359,
                "image_background":"https://media.rawg.io/media/games/c4b/c4b0cab189e73432de3a250d8cf1c84e.jpg"
             },
             {
                "id":42392,
                "name":"Приключение",
                "slug":"prikliuchenie",
                "language":"rus",
                "games_count":25381,
                "image_background":"https://media.rawg.io/media/games/ee3/ee3e10193aafc3230ba1cae426967d10.jpg"
             },
             {
                "id":40847,
                "name":"Steam Achievements",
                "slug":"steam-achievements",
                "language":"eng",
                "games_count":26283,
                "image_background":"https://media.rawg.io/media/games/b49/b4912b5dbfc7ed8927b65f05b8507f6c.jpg"
             },
             {
                "id":40849,
                "name":"Steam Cloud",
                "slug":"steam-cloud",
                "language":"eng",
                "games_count":11954,
                "image_background":"https://media.rawg.io/media/games/b8c/b8c243eaa0fbac8115e0cdccac3f91dc.jpg"
             },
             {
                "id":40836,
                "name":"Full controller support",
                "slug":"full-controller-support",
                "language":"eng",
                "games_count":12217,
                "image_background":"https://media.rawg.io/media/games/da1/da1b267764d77221f07a4386b6548e5a.jpg"
             },
             {
                "id":42401,
                "name":"Отличный саундтрек",
                "slug":"otlichnyi-saundtrek",
                "language":"rus",
                "games_count":4429,
                "image_background":"https://media.rawg.io/media/games/7cf/7cfc9220b401b7a300e409e539c9afd5.jpg"
             },
             {
                "id":42,
                "name":"Great Soundtrack",
                "slug":"great-soundtrack",
                "language":"eng",
                "games_count":3205,
                "image_background":"https://media.rawg.io/media/games/7fa/7fa0b586293c5861ee32490e953a4996.jpg"
             },
             {
                "id":42399,
                "name":"Казуальная игра",
                "slug":"kazualnaia-igra",
                "language":"rus",
                "games_count":26124,
                "image_background":"https://media.rawg.io/media/games/0be/0bea0a08a4d954337305391b778a7f37.jpg"
             },
             {
                "id":45,
                "name":"2D",
                "slug":"2d",
                "language":"eng",
                "games_count":164230,
                "image_background":"https://media.rawg.io/media/games/9fa/9fa63622543e5d4f6d99aa9d73b043de.jpg"
             },
             {
                "id":16,
                "name":"Horror",
                "slug":"horror",
                "language":"eng",
                "games_count":33762,
                "image_background":"https://media.rawg.io/media/games/174/174fabfca02d5730531bab2153a7dfcb.jpg"
             },
             {
                "id":42461,
                "name":"Классика",
                "slug":"klassika",
                "language":"rus",
                "games_count":1362,
                "image_background":"https://media.rawg.io/media/games/cee/cee577e2097a59b77193fe2bce94667d.jpg"
             },
             {
                "id":40850,
                "name":"Steam Leaderboards",
                "slug":"steam-leaderboards",
                "language":"eng",
                "games_count":5294,
                "image_background":"https://media.rawg.io/media/games/e04/e04963f3ac4c4fa83a1dc0b9231e50db.jpg"
             },
             {
                "id":193,
                "name":"Classic",
                "slug":"classic",
                "language":"eng",
                "games_count":1682,
                "image_background":"https://media.rawg.io/media/games/b54/b54598d1d5cc31899f4f0a7e3122a7b0.jpg"
             },
             {
                "id":6,
                "name":"Exploration",
                "slug":"exploration",
                "language":"eng",
                "games_count":15692,
                "image_background":"https://media.rawg.io/media/games/a3c/a3c529a12c896c0ef02db5b4741de2ba.jpg"
             },
             {
                "id":42463,
                "name":"Платформер",
                "slug":"platformer-2",
                "language":"rus",
                "games_count":5197,
                "image_background":"https://media.rawg.io/media/games/85c/85c8ae70e7cdf0105f06ef6bdce63b8b.jpg"
             },
             {
                "id":42467,
                "name":"Ретро",
                "slug":"retro-2",
                "language":"rus",
                "games_count":4456,
                "image_background":"https://media.rawg.io/media/games/9fa/9fa63622543e5d4f6d99aa9d73b043de.jpg"
             },
             {
                "id":42415,
                "name":"Пиксельная графика",
                "slug":"pikselnaia-grafika",
                "language":"rus",
                "games_count":6644,
                "image_background":"https://media.rawg.io/media/games/800/800d07ca648a9778a8230f40088e0866.jpg"
             },
             {
                "id":122,
                "name":"Pixel Graphics",
                "slug":"pixel-graphics",
                "language":"eng",
                "games_count":75508,
                "image_background":"https://media.rawg.io/media/screenshots/4f4/4f4722571e32954af43a4508607c1748.jpg"
             },
             {
                "id":74,
                "name":"Retro",
                "slug":"retro",
                "language":"eng",
                "games_count":32027,
                "image_background":"https://media.rawg.io/media/games/14a/14a83c56ff668baaced6e8c8704b6391.jpg"
             },
             {
                "id":42587,
                "name":"Аркада",
                "slug":"arkada",
                "language":"rus",
                "games_count":5679,
                "image_background":"https://media.rawg.io/media/games/fd7/fd794a9f0ffe816038d981b3acc3eec9.jpg"
             },
             {
                "id":134,
                "name":"Anime",
                "slug":"anime",
                "language":"eng",
                "games_count":8866,
                "image_background":"https://media.rawg.io/media/games/556/556157feed9ee1f55f2b12b2973e30a3.jpg"
             },
             {
                "id":42407,
                "name":"Аниме",
                "slug":"anime-2",
                "language":"rus",
                "games_count":5287,
                "image_background":"https://media.rawg.io/media/games/416/4164ca654a339af5be8e63cc9c480c70.jpg"
             },
             {
                "id":42562,
                "name":"Для всей семьи",
                "slug":"dlia-vsei-semi",
                "language":"rus",
                "games_count":4273,
                "image_background":"https://media.rawg.io/media/games/270/270b412b66688081497b3d70c100b208.jpg"
             },
             {
                "id":42586,
                "name":"Милая",
                "slug":"milaia",
                "language":"rus",
                "games_count":5993,
                "image_background":"https://media.rawg.io/media/games/594/59487800889ebac294c7c2c070d02356.jpg"
             },
             {
                "id":107,
                "name":"Family Friendly",
                "slug":"family-friendly",
                "language":"eng",
                "games_count":3611,
                "image_background":"https://media.rawg.io/media/games/ba9/ba9ad92b6d04825bd15a407c6059db94.jpg"
             },
             {
                "id":88,
                "name":"Cute",
                "slug":"cute",
                "language":"eng",
                "games_count":23362,
                "image_background":"https://media.rawg.io/media/games/f52/f52cf6ba08089cd5f1a9c8f7fcc93d1f.jpg"
             },
             {
                "id":42612,
                "name":"Быстрая",
                "slug":"bystraia",
                "language":"rus",
                "games_count":1365,
                "image_background":"https://media.rawg.io/media/screenshots/965/965eab30b4fb8348f24fa017d06d5eed.jpg"
             },
             {
                "id":131,
                "name":"Fast-Paced",
                "slug":"fast-paced",
                "language":"eng",
                "games_count":9256,
                "image_background":"https://media.rawg.io/media/games/736/73619bd336c894d6941d926bfd563946.jpg"
             },
             {
                "id":66533,
                "name":"Исследования",
                "slug":"issledovaniia",
                "language":"rus",
                "games_count":2322,
                "image_background":"https://media.rawg.io/media/games/98c/98c87b286cd2a2ba942167df384a9bd3.jpg"
             },
             {
                "id":49959,
                "name":"2D Platformer",
                "slug":"2d-platformer-3",
                "language":"eng",
                "games_count":2769,
                "image_background":"https://media.rawg.io/media/screenshots/91c/91c006c1de2961e56d0b4aba0c45b1da.jpg"
             },
             {
                "id":49995,
                "name":"2D-платформер",
                "slug":"2d-platformer-4",
                "language":"eng",
                "games_count":2725,
                "image_background":"https://media.rawg.io/media/screenshots/026/02659d9b66b1a8bdebecc92ef5093600.jpg"
             }
          ],
          "esrb_rating":{
             "id":1,
             "name":"Everyone",
             "slug":"everyone",
             "name_en":"Everyone",
             "name_ru":"Для всех"
          },
          "user_game":null,
          "reviews_count":0,
          "community_rating":0,
          "saturated_color":"0f0f0f",
          "dominant_color":"0f0f0f",
          "short_screenshots":[
             {
                "id":-1,
                "image":"https://media.rawg.io/media/games/8d0/8d0d4ee64321119d37ef8d140184a639.jpg"
             },
             {
                "id":3335824,
                "image":"https://media.rawg.io/media/screenshots/1cc/1cc31407aced097235aa9f78440073f6.jpg"
             },
             {
                "id":3335825,
                "image":"https://media.rawg.io/media/screenshots/fcf/fcf5bd8164ceff7b74b41f4c39046a52.jpg"
             },
             {
                "id":3335826,
                "image":"https://media.rawg.io/media/screenshots/a78/a785d13f62683c104ae631b0f5662257.jpg"
             },
             {
                "id":3335827,
                "image":"https://media.rawg.io/media/screenshots/a8a/a8a3e21000d6bd2660d23155b591da91.jpg"
             },
             {
                "id":3335828,
                "image":"https://media.rawg.io/media/screenshots/b28/b2849a752d279ac3002c274e3aaa652c.jpg"
             },
             {
                "id":3335829,
                "image":"https://media.rawg.io/media/screenshots/bb1/bb13beff5f68409000a326305c61d23a.jpg"
             }
          ],
          "parent_platforms":[
             {
                "platform":{
                   "id":1,
                   "name":"PC",
                   "slug":"pc"
                }
             },
             {
                "platform":{
                   "id":2,
                   "name":"PlayStation",
                   "slug":"playstation"
                }
             },
             {
                "platform":{
                   "id":3,
                   "name":"Xbox",
                   "slug":"xbox"
                }
             },
             {
                "platform":{
                   "id":7,
                   "name":"Nintendo",
                   "slug":"nintendo"
                }
             }
          ],
          "genres":[
             {
                "id":40,
                "name":"Casual",
                "slug":"casual"
             },
             {
                "id":83,
                "name":"Platformer",
                "slug":"platformer"
             },
             {
                "id":3,
                "name":"Adventure",
                "slug":"adventure"
             },
             {
                "id":4,
                "name":"Action",
                "slug":"action"
             }
          ]
       }
    ],
    "user_platforms":false
 }